STA 310 - Spring 2024 - Lecture 20: Multilevel generalized linear models
…
Exercise 3

Below is the average total number of fouls in all games in which a given team was the home team.

basketball |>
  group_by(hometeam, game) |>
  summarise(total_fouls = sum(foul.home, foul.vis)) |>
  group_by(hometeam) |>
  summarise(avg_foul = sum(total_fouls) / n())

# A tibble: 39 × 2
   hometeam avg_foul
   <chr>       <dbl>
 1 BC           15.1
 2 CIN          12.2
 3 CLEM         15.5
 4 CT           15  
 5 DEPAUL       13.4
 6 DUKE         20  
 7 FLST         16.6
 8 GATECH       17.5
 9 GTOWN        13.8
10 IA           12.1
# ℹ 29 more rows
…
