STA 210 - Fall 2023 - Inference for multiple linear regression
…
# set default theme and larger font size for ggplot2
ggplot2::theme_set(ggplot2::theme_bw(base_size = 20))

Introduction

Data: Restaurant tips

Which variables help us predict the amount customers tip at a restaurant?

# A tibble: 169 × 5
     Tip Party Meal   Age    Alcohol
   <dbl> <dbl> <chr>  <chr>  <chr>  
 1  2.99     1 Dinner Yadult No     
 2  2        1 Dinner Yadult No     
 3  5        1 Dinner SenCit No     
 4  4        3 Dinner Middle No     
 5 10.3      2 Dinner SenCit No     
 6  4.85     2 Dinner Middle No     
 7  5        4 Dinner Yadult No     
 8  4        3 Dinner Middle No     
 9  5        2 Dinner Middle No     
10  1.58     1 Dinner SenCit No     
# ℹ 159 more rows
…
Use cross validation on the training set to fit, evaluate, and compare candidate models. Choose a final model based on summary of cross validation results.

Refit the model using the entire training set and do “final” evaluation on the test set (make sure you have not overfit the model).

Adjust as needed if there is evidence of overfit.

Use model fit on training set for inference and prediction.

Data: rail_trail

The Pioneer Valley Planning Commission (PVPC) collected data for ninety days from April 5, 2005 to November 15, 2005.

Data collectors set up a laser sensor, with breaks in the laser beam recording when a rail-trail user passed the data collection station.

# A tibble: 90 × 7
   volume hightemp avgtemp season cloudcover precip day_type
    <dbl>    <dbl>   <dbl> <chr>       <dbl>  <dbl> <chr>   
 1    501       83    66.5 Summer       7.60 0      Weekday 
 2    419       73    61   Summer       6.30 0.290  Weekday 
 3    397       74    63   Spring       7.5  0.320  Weekday 
 4    385       95    78   Summer       2.60 0      Weekend 
 5    200       44    48   Spring      10    0.140  Weekday 
 6    375       69    61.5 Spring       6.60 0.0200 Weekday 
 7    417       66    52.5 Spring       2.40 0      Weekday 
 8    629       66    52   Spring       0    0      Weekend 
 9    533       80    67.5 Summer       3.80 0      Weekend 
10    547       79    62   Summer       4.10 0      Weekday 
# ℹ 80 more rows
…
