STA 210 - Fall 2023 - Multinomial logistic regression
…
For the baseline category, \(k=1\), we calculate the probability \(\hat{\pi}_{i1}\) as

\[
\hat{\pi}_{i1} = 1- \sum\limits_{k=2}^K \hat{\pi}_{ik}
\]

Predicted health rating

We can use our model to predict a person’s perceived health rating given their age and whether they exercise.

health_aug <- augment(health_fit, new_data = nhanes_adult)
health_aug

# A tibble: 6,465 × 11
   .pred_class .pred_Excellent .pred_Vgood .pred_Good .pred_Fair .pred_Poor
   <fct>                 <dbl>       <dbl>      <dbl>      <dbl>      <dbl>
 1 Good                 0.0687       0.243      0.453     0.201     0.0348 
 2 Good                 0.0687       0.243      0.453     0.201     0.0348 
 3 Good                 0.0687       0.243      0.453     0.201     0.0348 
 4 Good                 0.0691       0.244      0.435     0.205     0.0467 
 5 Vgood                0.155        0.393      0.359     0.0868    0.00671
 6 Vgood                0.155        0.393      0.359     0.0868    0.00671
 7 Vgood                0.155        0.393      0.359     0.0868    0.00671
 8 Vgood                0.157        0.400      0.342     0.0904    0.0102 
 9 Vgood                0.156        0.397      0.349     0.0890    0.00872
10 Vgood                0.156        0.396      0.352     0.0883    0.00804
# ℹ 6,455 more rows
# ℹ 5 more variables: HealthGen <fct>, Age <int>, PhysActive <fct>,
#   Education <fct>, obs_num <int>

Actual vs. predicted health rating

For each observation, the predicted perceived health rating is the category with the highest predicted probability.

health_aug |> select(contains("pred"))

# A tibble: 6,465 × 6
   .pred_class .pred_Excellent .pred_Vgood .pred_Good .pred_Fair .pred_Poor
   <fct>                 <dbl>       <dbl>      <dbl>      <dbl>      <dbl>
 1 Good                 0.0687       0.243      0.453     0.201     0.0348 
 2 Good                 0.0687       0.243      0.453     0.201     0.0348 
 3 Good                 0.0687       0.243      0.453     0.201     0.0348 
 4 Good                 0.0691       0.244      0.435     0.205     0.0467 
 5 Vgood                0.155        0.393      0.359     0.0868    0.00671
 6 Vgood                0.155        0.393      0.359     0.0868    0.00671
 7 Vgood                0.155        0.393      0.359     0.0868    0.00671
 8 Vgood                0.157        0.400      0.342     0.0904    0.0102 
 9 Vgood                0.156        0.397      0.349     0.0890    0.00872
10 Vgood                0.156        0.396      0.352     0.0883    0.00804
# ℹ 6,455 more rows
…
ROC curve: under the hood

An additional column, .level, identifies the "one" column in the one-vs-all calculation:

health_aug |> 
  roc_curve(
    truth = HealthGen, 
    .pred_Excellent:.pred_Poor
  )

# A tibble: 620 × 4
   .level    .threshold specificity sensitivity
   <chr>          <dbl>       <dbl>       <dbl>
 1 Excellent  -Inf          0             1    
 2 Excellent     0.0681     0             1    
 3 Excellent     0.0682     0.00664       0.997
 4 Excellent     0.0682     0.0138        0.992
 5 Excellent     0.0683     0.0192        0.989
 6 Excellent     0.0683     0.0243        0.981
 7 Excellent     0.0684     0.0297        0.970
 8 Excellent     0.0684     0.0353        0.969
 9 Excellent     0.0684     0.0426        0.951
10 Excellent     0.0685     0.0492        0.947
# ℹ 610 more rows
…
